%YAML 1.1
%TAG !u! tag:unity3d.com,2011:
--- !u!1 &1572639224830242209
GameObject:
  m_ObjectHideFlags: 0
  m_CorrespondingSourceObject: {fileID: 0}
  m_PrefabInstance: {fileID: 0}
  m_PrefabAsset: {fileID: 0}
  serializedVersion: 6
  m_Component:
  - component: {fileID: 1572639224830242208}
  - component: {fileID: 6726759632770118370}
  - component: {fileID: 8969384557288606623}
  m_Layer: 0
  m_Name: Ammo(Granade)
  m_TagString: Untagged
  m_Icon: {fileID: 0}
  m_NavMeshLayer: 0
  m_StaticEditorFlags: 0
  m_IsActive: 1
--- !u!4 &1572639224830242208
Transform:
  m_ObjectHideFlags: 0
  m_CorrespondingSourceObject: {fileID: 0}
  m_PrefabInstance: {fileID: 0}
  m_PrefabAsset: {fileID: 0}
  m_GameObject: {fileID: 1572639224830242209}
  m_LocalRotation: {x: 0, y: 0, z: 0, w: 1}
  m_LocalPosition: {x: 0, y: 0, z: 0}
  m_LocalScale: {x: 1, y: 1, z: 1}
  m_Children:
  - {fileID: 1739342064551029046}
  - {fileID: 4202507353445514155}
  - {fileID: 2435308489414335706}
  m_Father: {fileID: 0}
  m_RootOrder: 0
  m_LocalEulerAnglesHint: {x: 0, y: 0, z: 0}
--- !u!114 &6726759632770118370
MonoBehaviour:
  m_ObjectHideFlags: 0
  m_CorrespondingSourceObject: {fileID: 0}
  m_PrefabInstance: {fileID: 0}
  m_PrefabAsset: {fileID: 0}
  m_GameObject: {fileID: 1572639224830242209}
  m_Enabled: 1
  m_EditorHideFlags: 0
  m_Script: {fileID: 11500000, guid: 9048c48cd2e5dbb46b0b3b1b4b93cd59, type: 3}
  m_Name: 
  m_EditorClassIdentifier: 
  ammoAmount: 10
  ammoType: 2
--- !u!135 &8969384557288606623
SphereCollider:
  m_ObjectHideFlags: 0
  m_CorrespondingSourceObject: {fileID: 0}
  m_PrefabInstance: {fileID: 0}
  m_PrefabAsset: {fileID: 0}
  m_GameObject: {fileID: 1572639224830242209}
  m_Material: {fileID: 0}
  m_IsTrigger: 1
  m_Enabled: 1
  serializedVersion: 2
  m_Radius: 0.82
  m_Center: {x: 0, y: 0, z: 0}
--- !u!1001 &5594218593160824186
PrefabInstance:
  m_ObjectHideFlags: 0
  serializedVersion: 2
  m_Modification:
    m_TransformParent: {fileID: 1572639224830242208}
    m_Modifications:
    - target: {fileID: 7811876187465341344, guid: 0009eb267176a974e83b0b00d60fd0c7,
        type: 3}
      propertyPath: m_RootOrder
      value: 2
      objectReference: {fileID: 0}
    - target: {fileID: 7811876187465341344, guid: 0009eb267176a974e83b0b00d60fd0c7,
        type: 3}
      propertyPath: m_LocalPosition.x
      value: 0
      objectReference: {fileID: 0}
    - target: {fileID: 7811876187465341344, guid: 0009eb267176a974e83b0b00d60fd0c7,
        type: 3}
      propertyPath: m_LocalPosition.y
      value: 0.488
      objectReference: {fileID: 0}
    - target: {fileID: 7811876187465341344, guid: 0009eb267176a974e83b0b00d60fd0c7,
        type: 3}
      propertyPath: m_LocalPosition.z
      value: 0
      objectReference: {fileID: 0}
    - target: {fileID: 7811876187465341344, guid: 0009eb267176a974e83b0b00d60fd0c7,
        type: 3}
      propertyPath: m_LocalRotation.w
      value: 1
      objectReference: {fileID: 0}
    - target: {fileID: 7811876187465341344, guid: 0009eb267176a974e83b0b00d60fd0c7,
        type: 3}
      propertyPath: m_LocalRotation.x
      value: 0
      objectReference: {fileID: 0}
    - target: {fileID: 7811876187465341344, guid: 0009eb267176a974e83b0b00d60fd0c7,
        type: 3}
      propertyPath: m_LocalRotation.y
      value: 0
      objectReference: {fileID: 0}
    - target: {fileID: 7811876187465341344, guid: 0009eb267176a974e83b0b00d60fd0c7,
        type: 3}
      propertyPath: m_LocalRotation.z
      value: 0
      objectReference: {fileID: 0}
    - target: {fileID: 7811876187465341344, guid: 0009eb267176a974e83b0b00d60fd0c7,
        type: 3}
      propertyPath: m_LocalEulerAnglesHint.x
      value: 0
      objectReference: {fileID: 0}
    - target: {fileID: 7811876187465341344, guid: 0009eb267176a974e83b0b00d60fd0c7,
        type: 3}
      propertyPath: m_LocalEulerAnglesHint.y
      value: 0
      objectReference: {fileID: 0}
    - target: {fileID: 7811876187465341344, guid: 0009eb267176a974e83b0b00d60fd0c7,
        type: 3}
      propertyPath: m_LocalEulerAnglesHint.z
      value: 0
      objectReference: {fileID: 0}
    - target: {fileID: 7811876187465341350, guid: 0009eb267176a974e83b0b00d60fd0c7,
        type: 3}
      propertyPath: m_Name
      value: Granade (2)
      objectReference: {fileID: 0}
    m_RemovedComponents:
    - {fileID: 7811876187465341348, guid: 0009eb267176a974e83b0b00d60fd0c7, type: 3}
    - {fileID: 7811876187465341349, guid: 0009eb267176a974e83b0b00d60fd0c7, type: 3}
  m_SourcePrefab: {fileID: 100100000, guid: 0009eb267176a974e83b0b00d60fd0c7, type: 3}
--- !u!4 &2435308489414335706 stripped
Transform:
  m_CorrespondingSourceObject: {fileID: 7811876187465341344, guid: 0009eb267176a974e83b0b00d60fd0c7,
    type: 3}
  m_PrefabInstance: {fileID: 5594218593160824186}
  m_PrefabAsset: {fileID: 0}
--- !u!1001 &6213580094550729227
PrefabInstance:
  m_ObjectHideFlags: 0
  serializedVersion: 2
  m_Modification:
    m_TransformParent: {fileID: 1572639224830242208}
    m_Modifications:
    - target: {fileID: 7811876187465341344, guid: 0009eb267176a974e83b0b00d60fd0c7,
        type: 3}
      propertyPath: m_RootOrder
      value: 1
      objectReference: {fileID: 0}
    - target: {fileID: 7811876187465341344, guid: 0009eb267176a974e83b0b00d60fd0c7,
        type: 3}
      propertyPath: m_LocalPosition.x
      value: 0
      objectReference: {fileID: 0}
    - target: {fileID: 7811876187465341344, guid: 0009eb267176a974e83b0b00d60fd0c7,
        type: 3}
      propertyPath: m_LocalPosition.y
      value: 0.822
      objectReference: {fileID: 0}
    - target: {fileID: 7811876187465341344, guid: 0009eb267176a974e83b0b00d60fd0c7,
        type: 3}
      propertyPath: m_LocalPosition.z
      value: 0
      objectReference: {fileID: 0}
    - target: {fileID: 7811876187465341344, guid: 0009eb267176a974e83b0b00d60fd0c7,
        type: 3}
      propertyPath: m_LocalRotation.w
      value: 1
      objectReference: {fileID: 0}
    - target: {fileID: 7811876187465341344, guid: 0009eb267176a974e83b0b00d60fd0c7,
        type: 3}
      propertyPath: m_LocalRotation.x
      value: 0
      objectReference: {fileID: 0}
    - target: {fileID: 7811876187465341344, guid: 0009eb267176a974e83b0b00d60fd0c7,
        type: 3}
      propertyPath: m_LocalRotation.y
      value: 0
      objectReference: {fileID: 0}
    - target: {fileID: 7811876187465341344, guid: 0009eb267176a974e83b0b00d60fd0c7,
        type: 3}
      propertyPath: m_LocalRotation.z
      value: 0
      objectReference: {fileID: 0}
    - target: {fileID: 7811876187465341344, guid: 0009eb267176a974e83b0b00d60fd0c7,
        type: 3}
      propertyPath: m_LocalEulerAnglesHint.x
      value: 0
      objectReference: {fileID: 0}
    - target: {fileID: 7811876187465341344, guid: 0009eb267176a974e83b0b00d60fd0c7,
        type: 3}
      propertyPath: m_LocalEulerAnglesHint.y
      value: 0
      objectReference: {fileID: 0}
    - target: {fileID: 7811876187465341344, guid: 0009eb267176a974e83b0b00d60fd0c7,
        type: 3}
      propertyPath: m_LocalEulerAnglesHint.z
      value: 0
      objectReference: {fileID: 0}
    - target: {fileID: 7811876187465341350, guid: 0009eb267176a974e83b0b00d60fd0c7,
        type: 3}
      propertyPath: m_Name
      value: Granade (1)
      objectReference: {fileID: 0}
    m_RemovedComponents:
    - {fileID: 7811876187465341348, guid: 0009eb267176a974e83b0b00d60fd0c7, type: 3}
    - {fileID: 7811876187465341349, guid: 0009eb267176a974e83b0b00d60fd0c7, type: 3}
  m_SourcePrefab: {fileID: 100100000, guid: 0009eb267176a974e83b0b00d60fd0c7, type: 3}
--- !u!4 &4202507353445514155 stripped
Transform:
  m_CorrespondingSourceObject: {fileID: 7811876187465341344, guid: 0009eb267176a974e83b0b00d60fd0c7,
    type: 3}
  m_PrefabInstance: {fileID: 6213580094550729227}
  m_PrefabAsset: {fileID: 0}
--- !u!1001 &8379578658901274774
PrefabInstance:
  m_ObjectHideFlags: 0
  serializedVersion: 2
  m_Modification:
    m_TransformParent: {fileID: 1572639224830242208}
    m_Modifications:
    - target: {fileID: 7811876187465341344, guid: 0009eb267176a974e83b0b00d60fd0c7,
        type: 3}
      propertyPath: m_RootOrder
      value: 0
      objectReference: {fileID: 0}
    - target: {fileID: 7811876187465341344, guid: 0009eb267176a974e83b0b00d60fd0c7,
        type: 3}
      propertyPath: m_LocalPosition.x
      value: 0
      objectReference: {fileID: 0}
    - target: {fileID: 7811876187465341344, guid: 0009eb267176a974e83b0b00d60fd0c7,
        type: 3}
      propertyPath: m_LocalPosition.y
      value: 1.148
      objectReference: {fileID: 0}
    - target: {fileID: 7811876187465341344, guid: 0009eb267176a974e83b0b00d60fd0c7,
        type: 3}
      propertyPath: m_LocalPosition.z
      value: 0
      objectReference: {fileID: 0}
    - target: {fileID: 7811876187465341344, guid: 0009eb267176a974e83b0b00d60fd0c7,
        type: 3}
      propertyPath: m_LocalRotation.w
      value: 1
      objectReference: {fileID: 0}
    - target: {fileID: 7811876187465341344, guid: 0009eb267176a974e83b0b00d60fd0c7,
        type: 3}
      propertyPath: m_LocalRotation.x
      value: 0
      objectReference: {fileID: 0}
    - target: {fileID: 7811876187465341344, guid: 0009eb267176a974e83b0b00d60fd0c7,
        type: 3}
      propertyPath: m_LocalRotation.y
      value: 0
      objectReference: {fileID: 0}
    - target: {fileID: 7811876187465341344, guid: 0009eb267176a974e83b0b00d60fd0c7,
        type: 3}
      propertyPath: m_LocalRotation.z
      value: 0
      objectReference: {fileID: 0}
    - target: {fileID: 7811876187465341344, guid: 0009eb267176a974e83b0b00d60fd0c7,
        type: 3}
      propertyPath: m_LocalEulerAnglesHint.x
      value: 0
      objectReference: {fileID: 0}
    - target: {fileID: 7811876187465341344, guid: 0009eb267176a974e83b0b00d60fd0c7,
        type: 3}
      propertyPath: m_LocalEulerAnglesHint.y
      value: 0
      objectReference: {fileID: 0}
    - target: {fileID: 7811876187465341344, guid: 0009eb267176a974e83b0b00d60fd0c7,
        type: 3}
      propertyPath: m_LocalEulerAnglesHint.z
      value: 0
      objectReference: {fileID: 0}
    - target: {fileID: 7811876187465341350, guid: 0009eb267176a974e83b0b00d60fd0c7,
        type: 3}
      propertyPath: m_Name
      value: Granade
      objectReference: {fileID: 0}
    m_RemovedComponents:
    - {fileID: 7811876187465341348, guid: 0009eb267176a974e83b0b00d60fd0c7, type: 3}
    - {fileID: 7811876187465341349, guid: 0009eb267176a974e83b0b00d60fd0c7, type: 3}
  m_SourcePrefab: {fileID: 100100000, guid: 0009eb267176a974e83b0b00d60fd0c7, type: 3}
--- !u!4 &1739342064551029046 stripped
Transform:
  m_CorrespondingSourceObject: {fileID: 7811876187465341344, guid: 0009eb267176a974e83b0b00d60fd0c7,
    type: 3}
  m_PrefabInstance: {fileID: 8379578658901274774}
  m_PrefabAsset: {fileID: 0}
